<?xml version="1.0" encoding="utf-8"?>
<!-- Generator: Adobe Illustrator 21.0.0, SVG Export Plug-In . SVG Version: 6.00 Build 0)  -->
<svg version="1.1" id="Layer_3" xmlns="http://www.w3.org/2000/svg" xmlns:xlink="http://www.w3.org/1999/xlink" x="0px" y="0px"
	 viewBox="0 0 15.8 32" style="enable-background:new 0 0 15.8 32;" xml:space="preserve">
<path d="M15.3,0c0.1,0,0.3,0.1,0.4,0.2c0.2,0.2,0.2,0.5,0,0.7L1.3,15.5c-0.3,0.3-0.3,0.8,0,1.1l14.4,14.6c0.2,0.2,0.2,0.5,0,0.7
	c-0.2,0.2-0.5,0.2-0.7,0L0.5,17.3c-0.7-0.7-0.7-1.8,0-2.5L15,0.2C15.1,0.1,15.2,0,15.3,0z"/>
</svg>
