<?xml version="1.0" encoding="utf-8"?>
<!-- Generator: Adobe Illustrator 16.0.0, SVG Export Plug-In . SVG Version: 6.00 Build 0)  -->
<!DOCTYPE svg PUBLIC "-//W3C//DTD SVG 1.1//EN" "http://www.w3.org/Graphics/SVG/1.1/DTD/svg11.dtd">
<svg version="1.1" id="Layer_1" xmlns="http://www.w3.org/2000/svg" xmlns:xlink="http://www.w3.org/1999/xlink" x="0px" y="0px"
	 width="32px" height="32px" viewBox="496 496 32 32" enable-background="new 496 496 32 32" xml:space="preserve">
<g id="icomoon-ignore">
</g>
<path d="M512,496c-6.192,0-11.2,5.008-11.2,11.2c0,8.399,11.2,20.8,11.2,20.8s11.2-12.4,11.2-20.8
	C523.2,501.008,518.192,496,512,496z M512,511.2c-2.208,0-4-1.792-4-4s1.792-4,4-4s4,1.792,4,4S514.208,511.2,512,511.2z"/>
</svg>
