{
    "key": "group_57ab0981bced2",
    "title": "Block: Slider",
    "fields": [
        {
            "key": "field_5bf1eb7b21715",
            "label": "Slides",
            "name": "",
            "type": "tab",
            "instructions": "",
            "required": 0,
            "conditional_logic": 0,
            "wrapper": {
                "width": "",
                "class": "",
                "id": ""
            },
            "placement": "left",
            "endpoint": 0
        },
        {
            "key": "field_57ab0985e0c86",
            "label": "Slides",
            "name": "slides",
            "type": "repeater",
            "instructions": "",
            "required": 0,
            "conditional_logic": 0,
            "wrapper": {
                "width": "",
                "class": "",
                "id": ""
            },
            "collapsed": "field_5c80d222d9236",
            "min": 1,
            "max": 0,
            "layout": "row",
            "button_label": "Add Slide",
            "sub_fields": [
                {
                    "key": "field_5c80d222d9236",
                    "label": "Post Type",
                    "name": "post_type",
                    "type": "radio",
                    "instructions": "",
                    "required": 0,
                    "conditional_logic": 0,
                    "wrapper": {
                        "width": "",
                        "class": "",
                        "id": ""
                    },
                    "choices": {
                        "article": "Article",
                        "video": "Video"
                    },
                    "allow_null": 0,
                    "other_choice": 0,
                    "default_value": "article",
                    "layout": "horizontal",
                    "return_format": "value",
                    "save_other_choice": 0
                },
                {
                    "key": "field_5c7fa9de1bd27",
                    "label": "Mode",
                    "name": "mode",
                    "type": "true_false",
                    "instructions": "",
                    "required": 0,
                    "conditional_logic": 0,
                    "wrapper": {
                        "width": "",
                        "class": "",
                        "id": ""
                    },
                    "message": "",
                    "default_value": 1,
                    "ui": 1,
                    "ui_on_text": "Auto",
                    "ui_off_text": "Manual"
                },
                {
                    "key": "field_57ab098fe0c87",
                    "label": "Image",
                    "name": "featured",
                    "type": "image",
                    "instructions": "Ideal image sizes:\r\nWidth: 1920px\r\nHeight: 500px",
                    "required": 0,
                    "conditional_logic": 0,
                    "wrapper": {
                        "width": "",
                        "class": "",
                        "id": ""
                    },
                    "return_format": "url",
                    "preview_size": "thumbnail",
                    "library": "all",
                    "min_width": "",
                    "min_height": "",
                    "min_size": "",
                    "max_width": "",
                    "max_height": "",
                    "max_size": "",
                    "mime_types": ""
                },
                {
                    "key": "field_58c2737554a50",
                    "label": "Caption",
                    "name": "caption",
                    "type": "text",
                    "instructions": "",
                    "required": 0,
                    "conditional_logic": [
                        [
                            {
                                "field": "field_5c7fa9de1bd27",
                                "operator": "!=",
                                "value": "1"
                            }
                        ]
                    ],
                    "wrapper": {
                        "width": "",
                        "class": "",
                        "id": ""
                    },
                    "default_value": "",
                    "placeholder": "",
                    "prepend": "",
                    "append": "",
                    "maxlength": ""
                },
                {
                    "key": "field_5bf1ecc36666b",
                    "label": "Headline",
                    "name": "headline",
                    "type": "text",
                    "instructions": "",
                    "required": 0,
                    "conditional_logic": [
                        [
                            {
                                "field": "field_5c7fa9de1bd27",
                                "operator": "!=",
                                "value": "1"
                            }
                        ]
                    ],
                    "wrapper": {
                        "width": "",
                        "class": "",
                        "id": ""
                    },
                    "default_value": "",
                    "placeholder": "",
                    "prepend": "",
                    "append": "",
                    "maxlength": ""
                },
                {
                    "key": "field_57ab1fd634617",
                    "label": "Link",
                    "name": "link",
                    "type": "link",
                    "instructions": "",
                    "required": 0,
                    "conditional_logic": [
                        [
                            {
                                "field": "field_5c7fa9de1bd27",
                                "operator": "!=",
                                "value": "1"
                            }
                        ]
                    ],
                    "wrapper": {
                        "width": "",
                        "class": "",
                        "id": ""
                    },
                    "return_format": "array"
                },
                {
                    "key": "field_5c7faa091bd28",
                    "label": "Article",
                    "name": "article",
                    "type": "post_object",
                    "instructions": "Select article.",
                    "required": 0,
                    "conditional_logic": [
                        [
                            {
                                "field": "field_5c7fa9de1bd27",
                                "operator": "==",
                                "value": "1"
                            },
                            {
                                "field": "field_5c80d222d9236",
                                "operator": "==",
                                "value": "article"
                            }
                        ]
                    ],
                    "wrapper": {
                        "width": "",
                        "class": "",
                        "id": ""
                    },
                    "post_type": [
                        "post"
                    ],
                    "taxonomy": "",
                    "allow_null": 0,
                    "multiple": 0,
                    "return_format": "id",
                    "ui": 1
                },
                {
                    "key": "field_5c80d25fd9238",
                    "label": "Video",
                    "name": "video",
                    "type": "post_object",
                    "instructions": "Select video",
                    "required": 0,
                    "conditional_logic": [
                        [
                            {
                                "field": "field_5c7fa9de1bd27",
                                "operator": "==",
                                "value": "1"
                            },
                            {
                                "field": "field_5c80d222d9236",
                                "operator": "==",
                                "value": "video"
                            }
                        ]
                    ],
                    "wrapper": {
                        "width": "",
                        "class": "",
                        "id": ""
                    },
                    "post_type": [
                        "video"
                    ],
                    "taxonomy": "",
                    "allow_null": 0,
                    "multiple": 0,
                    "return_format": "id",
                    "ui": 1
                },
                {
                    "key": "field_5c8a346417b90",
                    "label": "Video File .mp4",
                    "name": "video_file",
                    "type": "file",
                    "instructions": "Upload video in mp4 format",
                    "required": 0,
                    "conditional_logic": [
                        [
                            {
                                "field": "field_5c7fa9de1bd27",
                                "operator": "!=",
                                "value": "1"
                            }
                        ]
                    ],
                    "wrapper": {
                        "width": "",
                        "class": "",
                        "id": ""
                    },
                    "return_format": "url",
                    "library": "all",
                    "min_size": "",
                    "max_size": "",
                    "mime_types": ""
                },
                {
                    "key": "field_5c8a4f23c56c8",
                    "label": "Video File .ogg",
                    "name": "video_file_2",
                    "type": "file",
                    "instructions": "Upload video in .ogg format",
                    "required": 0,
                    "conditional_logic": [
                        [
                            {
                                "field": "field_5c7fa9de1bd27",
                                "operator": "!=",
                                "value": "1"
                            }
                        ]
                    ],
                    "wrapper": {
                        "width": "",
                        "class": "",
                        "id": ""
                    },
                    "return_format": "url",
                    "library": "all",
                    "min_size": "",
                    "max_size": "",
                    "mime_types": ""
                }
            ]
        },
        {
            "key": "field_5bf1eb7521714",
            "label": "Options",
            "name": "",
            "type": "tab",
            "instructions": "",
            "required": 0,
            "conditional_logic": 0,
            "wrapper": {
                "width": "",
                "class": "",
                "id": ""
            },
            "placement": "left",
            "endpoint": 0
        },
        {
            "key": "field_5bf1eb3721710",
            "label": "Options",
            "name": "options",
            "type": "group",
            "instructions": "",
            "required": 0,
            "conditional_logic": 0,
            "wrapper": {
                "width": "",
                "class": "",
                "id": ""
            },
            "layout": "block",
            "sub_fields": [
                {
                    "key": "field_5bf1eb5521713",
                    "label": "Duration",
                    "name": "duration",
                    "type": "number",
                    "instructions": "",
                    "required": 0,
                    "conditional_logic": 0,
                    "wrapper": {
                        "width": "",
                        "class": "",
                        "id": ""
                    },
                    "default_value": 3000,
                    "placeholder": "",
                    "prepend": "",
                    "append": "",
                    "min": 1000,
                    "max": 15000,
                    "step": 100
                }
            ]
        }
    ],
    "location": [
        [
            {
                "param": "post_type",
                "operator": "==",
                "value": "post"
            },
            {
                "param": "post_type",
                "operator": "==",
                "value": "page"
            }
        ]
    ],
    "menu_order": 0,
    "position": "normal",
    "style": "default",
    "label_placement": "top",
    "instruction_placement": "label",
    "hide_on_screen": "",
    "active": 1,
    "description": "",
    "modified": 1552643207
}