{
    "key": "group_5c7d19d93b041",
    "title": "Block: Videos",
    "fields": [
        {
            "key": "field_5c7e548718be9",
            "label": "Mode",
            "name": "mode",
            "type": "button_group",
            "instructions": "",
            "required": 0,
            "conditional_logic": 0,
            "wrapper": {
                "width": "",
                "class": "",
                "id": ""
            },
            "choices": {
                "auto": "Auto",
                "manual": "Manual"
            },
            "allow_null": 0,
            "default_value": "auto",
            "layout": "horizontal",
            "return_format": "value"
        },
        {
            "key": "field_5c7d1b07f0965",
            "label": "Headline",
            "name": "headline",
            "type": "text",
            "instructions": "",
            "required": 0,
            "conditional_logic": [
                [
                    {
                        "field": "field_5c7e548718be9",
                        "operator": "==",
                        "value": "manual"
                    }
                ]
            ],
            "wrapper": {
                "width": "",
                "class": "",
                "id": ""
            },
            "default_value": "",
            "placeholder": "Latest Videos",
            "prepend": "",
            "append": "",
            "maxlength": ""
        },
        {
            "key": "field_5c7d1cea46c99",
            "label": "Link",
            "name": "link",
            "type": "link",
            "instructions": "Select view all link manually; default leads to video archive\/category page.",
            "required": 0,
            "conditional_logic": [
                [
                    {
                        "field": "field_5c7e548718be9",
                        "operator": "==",
                        "value": "manual"
                    }
                ]
            ],
            "wrapper": {
                "width": "",
                "class": "",
                "id": ""
            },
            "return_format": "array"
        },
        {
            "key": "field_5c7d1fd2e6309",
            "label": "Category",
            "name": "category",
            "type": "taxonomy",
            "instructions": "Choosing a category you will show the latest from this category.",
            "required": 0,
            "conditional_logic": [
                [
                    {
                        "field": "field_5c7e548718be9",
                        "operator": "==",
                        "value": "auto"
                    }
                ]
            ],
            "wrapper": {
                "width": "",
                "class": "",
                "id": ""
            },
            "taxonomy": "video_category",
            "field_type": "select",
            "allow_null": 1,
            "add_term": 0,
            "save_terms": 0,
            "load_terms": 0,
            "return_format": "id",
            "multiple": 0
        },
        {
            "key": "field_5c7d19e83d4cf",
            "label": "Videos",
            "name": "videos",
            "type": "relationship",
            "instructions": "",
            "required": 0,
            "conditional_logic": [
                [
                    {
                        "field": "field_5c7e548718be9",
                        "operator": "==",
                        "value": "manual"
                    }
                ]
            ],
            "wrapper": {
                "width": "",
                "class": "",
                "id": ""
            },
            "post_type": [
                "video"
            ],
            "taxonomy": "",
            "filters": [
                "search",
                "taxonomy"
            ],
            "elements": [
                "featured_image"
            ],
            "min": "",
            "max": 4,
            "return_format": "id"
        }
    ],
    "location": [
        [
            {
                "param": "post_type",
                "operator": "==",
                "value": "post"
            },
            {
                "param": "post_type",
                "operator": "==",
                "value": "page"
            }
        ]
    ],
    "menu_order": 0,
    "position": "normal",
    "style": "default",
    "label_placement": "top",
    "instruction_placement": "label",
    "hide_on_screen": "",
    "active": 1,
    "description": "",
    "modified": 1551787377
}